%YAML 1.1
%TAG !u! tag:unity3d.com,2011:
--- !u!114 &11400000
MonoBehaviour:
  m_ObjectHideFlags: 0
  m_PrefabParentObject: {fileID: 0}
  m_PrefabInternal: {fileID: 0}
  m_GameObject: {fileID: 0}
  m_Enabled: 1
  m_EditorHideFlags: 0
  m_Script: {fileID: 11500000, guid: a3ba73d6480b2594fbf77f7b6a9bc81d, type: 3}
  m_Name: NewQuestion 32
  m_EditorClassIdentifier: 
  id: 0
  level: Avanzada
  questionText: "\xBFQu\xE9 representa una relaci\xF3n callback?"
  options:
  - "\"En el patr\xF3n publica-subscribe"
  - "Es un conector en el patr\xF3n publica-subscribe cuya responsabilidad es rutear
    los mensajes desde los publicadores a los suscriptores.\r"
  - '"Es un conjunto de estructuras que permiten para razonar acerca de un sistema'
  - "Es un atributo de calidad que se define como la capacidad de un sistema de responder
    r\xE1pidamente a las peticiones de los usuarios u otros eventos.\r"
  answer: 0
