%YAML 1.1
%TAG !u! tag:unity3d.com,2011:
--- !u!114 &11400000
MonoBehaviour:
  m_ObjectHideFlags: 0
  m_PrefabParentObject: {fileID: 0}
  m_PrefabInternal: {fileID: 0}
  m_GameObject: {fileID: 0}
  m_Enabled: 1
  m_EditorHideFlags: 0
  m_Script: {fileID: 11500000, guid: a3ba73d6480b2594fbf77f7b6a9bc81d, type: 3}
  m_Name: NewQuestion 48
  m_EditorClassIdentifier: 
  id: 0
  level: "B\xE1sica"
  questionText: "\xBFQu\xE9 son los requerimientos de atributos de calidad?"
  options:
  - "Es un tipo de componente en el patr\xF3n publica-subscribe cuya responsabilidad
    es enviar mensajes.\r"
  - "\"Describen caracter\xEDsticas de calidad de un sistema que son observadas no
    se est\xE1 ejecutando. Por ejemplo"
  - "\r"
  - "\"Describen caracter\xEDsticas de calidad de un sistema. Por ejemplo"
  answer: 3
