%YAML 1.1
%TAG !u! tag:unity3d.com,2011:
--- !u!114 &11400000
MonoBehaviour:
  m_ObjectHideFlags: 0
  m_PrefabParentObject: {fileID: 0}
  m_PrefabInternal: {fileID: 0}
  m_GameObject: {fileID: 0}
  m_Enabled: 1
  m_EditorHideFlags: 0
  m_Script: {fileID: 11500000, guid: a3ba73d6480b2594fbf77f7b6a9bc81d, type: 3}
  m_Name: NewQuestion 40
  m_EditorClassIdentifier: 
  id: 0
  level: Avanzada
  questionText: "\xBFQu\xE9 es un pipe?"
  options:
  - '"Es un atributo de calidad que tiene que ver con la facilidad de crear criterios
    de prueba para el sistema y sus componentes'
  - "Es un conector que transmite datos desde los puertos de salida de un filtro a
    los puertos de entrada de otro filtro.\r"
  - "Es un atributo de calidad que tiene que ver con la facilidad de que un sistema
    pueda conectarse e intercambiar informaci\xF3n con otros sistemas o componentes.\r"
  answer: 1
