%YAML 1.1
%TAG !u! tag:unity3d.com,2011:
--- !u!114 &11400000
MonoBehaviour:
  m_ObjectHideFlags: 0
  m_PrefabParentObject: {fileID: 0}
  m_PrefabInternal: {fileID: 0}
  m_GameObject: {fileID: 0}
  m_Enabled: 1
  m_EditorHideFlags: 0
  m_Script: {fileID: 11500000, guid: a3ba73d6480b2594fbf77f7b6a9bc81d, type: 3}
  m_Name: NewQuestion 28
  m_EditorClassIdentifier: 
  id: 0
  level: Avanzada
  questionText: "\xBFQu\xE9 es el patr\xF3n publica-subscribe?"
  options:
  - "Es un tipo de componente en el patr\xF3n microservicios que sirve de puerta de
    acceso a los microservicios. \r"
  - "\r"
  - "Es un atributo de calidad que se define como la proporci\xF3n de tiempo el cual
    un sistema se encuentra funcional y operativo.\r"
  - "Es un patr\xF3n arquitect\xF3nico que se basa en el env\xEDo as\xEDncrono de
    mensajes permitiendo que un conjunto de componentes publicadores de mensajes env\xEDen
    \xE9stos a un conjunto de componentes suscriptores.\r"
  answer: 3
